\babel@toc {ngerman}{}
\contentsline {section}{\numberline {1}Rechnen mit ganzen Zahlen}{1}{section.1}% 
\contentsline {paragraph}{Eindeutigkeit}{1}{section*.2}% 
\contentsline {paragraph}{Existenz}{1}{section*.3}% 
\contentsline {section}{\numberline {2}Rechnen mit Brüchen, Potenzen und Polynomen}{2}{section.2}% 
\contentsline {section}{\numberline {3}Logik und Beweise}{4}{section.3}% 
\contentsline {paragraph}{Frage:}{5}{section*.5}% 
\contentsline {paragraph}{Induktionsanfang:}{6}{section*.8}% 
\contentsline {paragraph}{Induktionsvoraussetzung:}{7}{section*.9}% 
\contentsline {paragraph}{Induktionsschritt:}{7}{section*.10}% 
\contentsline {paragraph}{Vorsicht:}{7}{section*.11}% 
\contentsline {paragraph}{Induktionsanfang:}{7}{section*.12}% 
\contentsline {paragraph}{Induktionsschritt:}{7}{section*.13}% 
\contentsline {paragraph}{Induktionsanfang:}{8}{section*.14}% 
\contentsline {paragraph}{Induktionsschritt:}{8}{section*.15}% 
\contentsline {paragraph}{Beispiel:}{8}{section*.16}% 
\contentsline {section}{\numberline {4}Mengen und Abbildungen}{8}{section.4}% 
\contentsline {paragraph}{Induktionsanfang:}{9}{section*.17}% 
\contentsline {paragraph}{Induktionsschritt:}{9}{section*.18}% 
\contentsline {paragraph}{Induktionsanfang:}{10}{section*.19}% 
\contentsline {paragraph}{Induktionsschritt:}{10}{section*.20}% 
\contentsline {paragraph}{Induktionsanfang:}{10}{section*.21}% 
\contentsline {paragraph}{Induktionsschritt:}{10}{section*.22}% 
\contentsline {section}{\numberline {5}Ebene Geometrie}{13}{section.5}% 
\contentsline {section}{\numberline {6}Komplexe Zahlen}{13}{section.6}% 
\contentsline {section}{\numberline {7}Differentialrechnung}{13}{section.7}% 
